…
   group_by(frame) |>
   mutate(arclen = arclength(mxmm, mymm),
          curve_ang = curvature(arclen, mxmm, mymm)) |>
   group_by(point) |>
   mutate(ph_c = hilbert_phase(curve_ang)) |>
   ungroup() |>
   get_body_cycle_numbers_df(ph_c, pointval = 18)
#> Warning: There were 21 warnings in `mutate()`.
#> The first warning was:
#> ℹ In argument: `ph_c = hilbert_phase(curve_ang)`.
#> ℹ In group 2: `point = 2`.
#> Caused by warning in `hilbert_phase()`:
#> ! Phase seems to go backwards a lot, which may indicate an overly noisy signal
#> ℹ Run `dplyr::last_dplyr_warnings()` to see the 20 remaining warnings.
#> # A tibble: 1,600 × 9
#>        t frame point  mxmm  mymm arclen curve_ang  ph_c cycle
#>    <dbl> <int> <int> <dbl> <dbl>  <dbl>     <dbl> <dbl> <dbl>
#>  1  0.02     1     1    NA    NA     NA        NA    NA    NA
#>  2  0.02     1     2    NA    NA     NA        NA    NA    NA
#>  3  0.02     1     3    NA    NA     NA        NA    NA    NA
#>  4  0.02     1     4    NA    NA     NA        NA    NA    NA
#>  5  0.02     1     5    NA    NA     NA        NA    NA    NA
#>  6  0.02     1     6    NA    NA     NA        NA    NA    NA
#>  7  0.02     1     7    NA    NA     NA        NA    NA    NA
#>  8  0.02     1     8    NA    NA     NA        NA    NA    NA
#>  9  0.02     1     9    NA    NA     NA        NA    NA    NA
#> 10  0.02     1    10    NA    NA     NA        NA    NA    NA
#> # ℹ 1,590 more rows
```
