…
## Examples

``` r
library(dplyr)
lampreydata |>
  group_by(frame) |>
  mutate(arclen = arclength(mxmm, mymm),
         width = interpolate_width(fishwidth$s, fishwidth$ammowidth, arclen)) |>
  ungroup() |>
  get_midline_center_df(arclen, mxmm, mymm, width = width)
#> ℹ Estimating center of mass based on width
#> # A tibble: 1,600 × 10
#>        t frame point  mxmm  mymm arclen width  xcom  ycom  nsum
#>    <dbl> <int> <int> <dbl> <dbl>  <dbl> <dbl> <dbl> <dbl> <int>
#>  1  0.02     1     1    NA    NA     NA    NA    NA    NA     0
#>  2  0.02     1     2    NA    NA     NA    NA    NA    NA     0
#>  3  0.02     1     3    NA    NA     NA    NA    NA    NA     0
#>  4  0.02     1     4    NA    NA     NA    NA    NA    NA     0
#>  5  0.02     1     5    NA    NA     NA    NA    NA    NA     0
#>  6  0.02     1     6    NA    NA     NA    NA    NA    NA     0
#>  7  0.02     1     7    NA    NA     NA    NA    NA    NA     0
#>  8  0.02     1     8    NA    NA     NA    NA    NA    NA     0
#>  9  0.02     1     9    NA    NA     NA    NA    NA    NA     0
#> 10  0.02     1    10    NA    NA     NA    NA    NA    NA     0
#> # ℹ 1,590 more rows
```
