Gets the primary swimming axis for many midlines — get_primary_swimming_axis_df • fishmechr
…
    Examples

library(dplyr)
# subtract the center of mass, then estimate the primary swimming axis
lampreydata |>
  group_by(frame) |>
  mutate(arclen = arclength(mxmm, mymm)) |>
  ungroup() |>
  get_midline_center_df(arclen, mxmm, mymm) |>
  mutate(mxmm_ctr = mxmm - xcom, mymm_ctr = mymm - ycom) |>
  get_primary_swimming_axis_df(t, mxmm_ctr, mymm_ctr)
#> ℹ Estimating center of mass as the centroid of x and y
#> # A tibble: 1,600 × 15
#>        t frame point  mxmm  mymm arclen  xcom  ycom  nsum mxmm_ctr mymm_ctr
#>    <dbl> <int> <int> <dbl> <dbl>  <dbl> <dbl> <dbl> <int>    <dbl>    <dbl>
#>  1  0.02     1     1    NA    NA     NA   NaN   NaN     0       NA       NA
#>  2  0.02     1     2    NA    NA     NA   NaN   NaN     0       NA       NA
#>  3  0.02     1     3    NA    NA     NA   NaN   NaN     0       NA       NA
#>  4  0.02     1     4    NA    NA     NA   NaN   NaN     0       NA       NA
#>  5  0.02     1     5    NA    NA     NA   NaN   NaN     0       NA       NA
#>  6  0.02     1     6    NA    NA     NA   NaN   NaN     0       NA       NA
#>  7  0.02     1     7    NA    NA     NA   NaN   NaN     0       NA       NA
#>  8  0.02     1     8    NA    NA     NA   NaN   NaN     0       NA       NA
#>  9  0.02     1     9    NA    NA     NA   NaN   NaN     0       NA       NA
#> 10  0.02     1    10    NA    NA     NA   NaN   NaN     0       NA       NA
#> # ℹ 1,590 more rows
#> # ℹ 4 more variables: swimaxis_x <dbl>, swimaxis_y <dbl>, exc_x <dbl>,
#> #   exc <dbl>
…
