…
Operates on each frame (as defined in the `.frame` parameter)
individually.

## Examples

``` r
library(dplyr)
# compute arc length, then interpolate all midlines to 20 evenly-spaced points
lampreydata |>
  group_by(frame) |>
  mutate(arclen = arclength(mxmm, mymm)) |>
  ungroup() |>
  interpolate_points_df(arclen, mxmm, mymm)
#> # A tibble: 1,600 × 9
#> # Groups:   frame [80]
#>        t frame point  mxmm  mymm arclen arclen_s mxmm_s mymm_s
#>    <dbl> <int> <int> <dbl> <dbl>  <dbl>    <dbl>  <dbl>  <dbl>
#>  1  0.02     1     1    NA    NA     NA     0        NA     NA
#>  2  0.02     1     2    NA    NA     NA     8.13     NA     NA
#>  3  0.02     1     3    NA    NA     NA    16.3      NA     NA
#>  4  0.02     1     4    NA    NA     NA    24.4      NA     NA
#>  5  0.02     1     5    NA    NA     NA    32.5      NA     NA
#>  6  0.02     1     6    NA    NA     NA    40.7      NA     NA
#>  7  0.02     1     7    NA    NA     NA    48.8      NA     NA
#>  8  0.02     1     8    NA    NA     NA    56.9      NA     NA
#>  9  0.02     1     9    NA    NA     NA    65.1      NA     NA
#> 10  0.02     1    10    NA    NA     NA    73.2      NA     NA
#> # ℹ 1,590 more rows
```
