…
## Amplitude

To estimate amplitude, it’s helpful to set up an overall cycle number
for the whole body. We define this based on the excursion of the tail
point. `get_body_cycle_numbers` also excludes partial cycles.

``` r
lampreydata <-
  lampreydata |> 
  get_body_cycle_numbers_df(ph_p, 20) |> 
  arrange(t, point)

lampreydata
#> # A tibble: 1,600 × 27
#> # Groups:   point [20]
#>        t frame point  mxmm  mymm arclen0 arclen mxmm_s mymm_s width  xcom  ycom
#>    <dbl> <int> <int> <dbl> <dbl>   <dbl>  <dbl>  <dbl>  <dbl> <dbl> <dbl> <dbl>
#>  1  0.02     1     1    NA    NA      NA   0        NA     NA  2.48    NA    NA
#>  2  0.02     1     2    NA    NA      NA   8.13     NA     NA  2.61    NA    NA
#>  3  0.02     1     3    NA    NA      NA  16.3      NA     NA  2.75    NA    NA
#>  4  0.02     1     4    NA    NA      NA  24.4      NA     NA  2.81    NA    NA
#>  5  0.02     1     5    NA    NA      NA  32.5      NA     NA  2.83    NA    NA
#>  6  0.02     1     6    NA    NA      NA  40.7      NA     NA  2.85    NA    NA
#>  7  0.02     1     7    NA    NA      NA  48.8      NA     NA  2.88    NA    NA
#>  8  0.02     1     8    NA    NA      NA  56.9      NA     NA  2.80    NA    NA
#>  9  0.02     1     9    NA    NA      NA  65.1      NA     NA  2.70    NA    NA
#> 10  0.02     1    10    NA    NA      NA  73.2      NA     NA  2.61    NA    NA
#> # ℹ 1,590 more rows
#> # ℹ 15 more variables: nsum <int>, curve_ang <dbl>, curve_xy <dbl>,
#> #   mxmm_ctr <dbl>, mymm_ctr <dbl>, swimaxis_x <dbl>, swimaxis_y <dbl>,
#> #   exc_x <dbl>, exc <dbl>, exc_s <dbl>, curve_ang_s <dbl>, ph_c <dbl>,
#> #   ph_e <dbl>, ph_p <dbl>, cycle <dbl>
```
…
